// Jest Snapshot v1, https://goo.gl/fbAQLP

exports[`calculateTimeSeries returns allSeries 1`] = `
Object {
  "lower05": Array [
    Object {
      "x": undefined,
      "y": 10000.00000000001,
    },
    Object {
      "x": undefined,
      "y": 10014.042682961257,
    },
    Object {
      "x": undefined,
      "y": 10147.767535845825,
    },
    Object {
      "x": undefined,
      "y": 10299.818973113037,
    },
    Object {
      "x": undefined,
      "y": 10460.924683148583,
    },
    Object {
      "x": undefined,
      "y": 10627.584299425116,
    },
    Object {
      "x": undefined,
      "y": 10798.047025175772,
    },
    Object {
      "x": undefined,
      "y": 10971.298564545348,
    },
    Object {
      "x": undefined,
      "y": 11146.694590229314,
    },
    Object {
      "x": undefined,
      "y": 11323.798927100277,
    },
    Object {
      "x": undefined,
      "y": 11502.30221986955,
    },
    Object {
      "x": undefined,
      "y": 11681.977100569191,
    },
    Object {
      "x": undefined,
      "y": 11862.651698548132,
    },
  ],
  "median": Array [
    Object {
      "x": undefined,
      "y": 10000,
    },
    Object {
      "x": undefined,
      "y": 10226.451589425214,
    },
    Object {
      "x": undefined,
      "y": 10453.50217929724,
    },
    Object {
      "x": undefined,
      "y": 10681.153354067485,
    },
    Object {
      "x": undefined,
      "y": 10909.406702378436,
    },
    Object {
      "x": undefined,
      "y": 11138.26381707484,
    },
    Object {
      "x": undefined,
      "y": 11367.726295214734,
    },
    Object {
      "x": undefined,
      "y": 11597.795738080647,
    },
    Object {
      "x": undefined,
      "y": 11828.473751190773,
    },
    Object {
      "x": undefined,
      "y": 12059.761944310114,
    },
    Object {
      "x": undefined,
      "y": 12291.661931461793,
    },
    Object {
      "x": undefined,
      "y": 12524.175330938242,
    },
    Object {
      "x": undefined,
      "y": 12757.303765312578,
    },
  ],
  "upper95": Array [
    Object {
      "x": undefined,
      "y": 10000.00000000001,
    },
    Object {
      "x": undefined,
      "y": 10443.365923414674,
    },
    Object {
      "x": undefined,
      "y": 10768.448077527242,
    },
    Object {
      "x": undefined,
      "y": 11076.606032681091,
    },
    Object {
      "x": undefined,
      "y": 11377.116096593283,
    },
    Object {
      "x": undefined,
      "y": 11673.482643225823,
    },
    Object {
      "x": undefined,
      "y": 11967.460488144403,
    },
    Object {
      "x": undefined,
      "y": 12260.067957399126,
    },
    Object {
      "x": undefined,
      "y": 12551.953419917882,
    },
    Object {
      "x": undefined,
      "y": 12843.557103912039,
    },
    Object {
      "x": undefined,
      "y": 13135.192429247485,
    },
    Object {
      "x": undefined,
      "y": 13427.090839994848,
    },
    Object {
      "x": undefined,
      "y": 13719.428294466165,
    },
  ],
}
`;
